{
  "swagger": "2.0",
  "info": {
    "title": "Image management service API",
    "version": "1.0"
  },
  "tags": [
    {
      "name": "ImageService"
    }
  ],
  "host": "localhost:8000",
  "basePath": "/api/management/",
  "schemes": [
    "http"
  ],
  "consumes": [
    "application/json"
  ],
  "produces": [
    "application/json"
  ],
  "paths": {
    "/images/uuid/{uuid}/v1": {
      "get": {
        "operationId": "ImageService_GetImageWithUUid",
        "responses": {
          "200": {
            "description": "A successful response.",
            "schema": {
              "$ref": "#/definitions/v1ImageFullSpec"
            }
          },
          "default": {
            "description": "An unexpected error response.",
            "schema": {
              "$ref": "#/definitions/rpcStatus"
            }
          }
        },
        "parameters": [
          {
            "name": "uuid",
            "in": "path",
            "required": true,
            "type": "string"
          }
        ],
        "tags": [
          "ImageService"
        ]
      }
    },
    "/images/v1": {
      "get": {
        "operationId": "ImageService_ListImage",
        "responses": {
          "200": {
            "description": "A successful response.",
            "schema": {
              "$ref": "#/definitions/v1ImageList"
            }
          },
          "default": {
            "description": "An unexpected error response.",
            "schema": {
              "$ref": "#/definitions/rpcStatus"
            }
          }
        },
        "parameters": [
          {
            "name": "page.page",
            "in": "query",
            "required": false,
            "type": "string",
            "format": "int64"
          },
          {
            "name": "page.perPage",
            "in": "query",
            "required": false,
            "type": "string",
            "format": "int64"
          },
          {
            "name": "filter.isEnabled",
            "in": "query",
            "required": false,
            "type": "boolean"
          }
        ],
        "tags": [
          "ImageService"
        ],
        "security": [
          {
            "bearerAuth": []
          }
        ]
      }
    },
    "/images/{id}/disable/v1": {
      "patch": {
        "operationId": "ImageService_DisableImage",
        "responses": {
          "200": {
            "description": "A successful response.",
            "schema": {
              "type": "object",
              "properties": {}
            }
          },
          "default": {
            "description": "An unexpected error response.",
            "schema": {
              "$ref": "#/definitions/rpcStatus"
            }
          }
        },
        "parameters": [
          {
            "name": "id",
            "in": "path",
            "required": true,
            "type": "string"
          },
          {
            "name": "body",
            "in": "body",
            "required": true,
            "schema": {
              "type": "object"
            }
          }
        ],
        "tags": [
          "ImageService"
        ],
        "security": [
          {
            "bearerAuth": []
          }
        ]
      }
    },
    "/images/{id}/display-name/v1": {
      "patch": {
        "operationId": "ImageService_ChangeDisplayName",
        "responses": {
          "200": {
            "description": "A successful response.",
            "schema": {
              "$ref": "#/definitions/v1ImageFullSpec"
            }
          },
          "default": {
            "description": "An unexpected error response.",
            "schema": {
              "$ref": "#/definitions/rpcStatus"
            }
          }
        },
        "parameters": [
          {
            "name": "id",
            "in": "path",
            "required": true,
            "type": "string"
          },
          {
            "name": "body",
            "in": "body",
            "required": true,
            "schema": {
              "type": "object",
              "properties": {
                "name": {
                  "type": "string"
                }
              }
            }
          }
        ],
        "tags": [
          "ImageService"
        ],
        "security": [
          {
            "bearerAuth": []
          }
        ]
      }
    },
    "/images/{id}/enable/v1": {
      "patch": {
        "operationId": "ImageService_EnableImage",
        "responses": {
          "200": {
            "description": "A successful response.",
            "schema": {
              "type": "object",
              "properties": {}
            }
          },
          "default": {
            "description": "An unexpected error response.",
            "schema": {
              "$ref": "#/definitions/rpcStatus"
            }
          }
        },
        "parameters": [
          {
            "name": "id",
            "in": "path",
            "required": true,
            "type": "string"
          },
          {
            "name": "body",
            "in": "body",
            "required": true,
            "schema": {
              "type": "object"
            }
          }
        ],
        "tags": [
          "ImageService"
        ],
        "security": [
          {
            "bearerAuth": []
          }
        ]
      }
    },
    "/images/{id}/icon/v1": {
      "post": {
        "operationId": "ImageService_UpdateIcon",
        "responses": {
          "200": {
            "description": "A successful response.",
            "schema": {
              "type": "object",
              "properties": {}
            }
          },
          "default": {
            "description": "An unexpected error response.",
            "schema": {
              "$ref": "#/definitions/rpcStatus"
            }
          }
        },
        "parameters": [
          {
            "name": "id",
            "in": "path",
            "required": true,
            "type": "string"
          },
          {
            "name": "body",
            "in": "body",
            "required": true,
            "schema": {
              "type": "object",
              "properties": {
                "image": {
                  "type": "string",
                  "format": "byte"
                }
              }
            }
          }
        ],
        "tags": [
          "ImageService"
        ],
        "security": [
          {
            "bearerAuth": []
          }
        ]
      }
    },
    "/images/{id}/v1": {
      "get": {
        "operationId": "ImageService_GetImage",
        "responses": {
          "200": {
            "description": "A successful response.",
            "schema": {
              "$ref": "#/definitions/v1ImageFullSpec"
            }
          },
          "default": {
            "description": "An unexpected error response.",
            "schema": {
              "$ref": "#/definitions/rpcStatus"
            }
          }
        },
        "parameters": [
          {
            "name": "id",
            "in": "path",
            "required": true,
            "type": "string"
          }
        ],
        "tags": [
          "ImageService"
        ],
        "security": [
          {
            "bearerAuth": []
          }
        ]
      }
    }
  },
  "definitions": {
    "protobufAny": {
      "type": "object",
      "properties": {
        "@type": {
          "type": "string"
        }
      },
      "additionalProperties": {}
    },
    "rpcStatus": {
      "type": "object",
      "properties": {
        "code": {
          "type": "integer",
          "format": "int32"
        },
        "message": {
          "type": "string"
        },
        "details": {
          "type": "array",
          "items": {
            "$ref": "#/definitions/protobufAny"
          }
        }
      }
    },
    "v1DISK_TYPE": {
      "type": "string",
      "enum": [
        "ISO_IMAGE",
        "DISK_IMAGE"
      ],
      "default": "ISO_IMAGE"
    },
    "v1ImageFilter": {
      "type": "object",
      "properties": {
        "isEnabled": {
          "type": "boolean"
        }
      }
    },
    "v1ImageFullSpec": {
      "type": "object",
      "properties": {
        "id": {
          "type": "string"
        },
        "name": {
          "type": "string"
        },
        "description": {
          "type": "string"
        },
        "isEnabled": {
          "type": "boolean"
        },
        "diskType": {
          "$ref": "#/definitions/v1DISK_TYPE"
        },
        "icon": {
          "type": "string",
          "format": "byte"
        },
        "source": {
          "type": "string"
        },
        "architecture": {
          "type": "string"
        },
        "uuid": {
          "type": "string"
        },
        "displayName": {
          "type": "string"
        }
      }
    },
    "v1ImageList": {
      "type": "object",
      "properties": {
        "items": {
          "type": "array",
          "items": {
            "$ref": "#/definitions/v1ImageSpec"
          }
        },
        "pageInfo": {
          "$ref": "#/definitions/v1PageInfo"
        }
      }
    },
    "v1ImageSpec": {
      "type": "object",
      "properties": {
        "id": {
          "type": "string"
        },
        "image": {
          "type": "string"
        },
        "description": {
          "type": "string"
        },
        "isEnabled": {
          "type": "boolean"
        },
        "diskType": {
          "$ref": "#/definitions/v1DISK_TYPE"
        }
      }
    },
    "v1Page": {
      "type": "object",
      "properties": {
        "page": {
          "type": "string",
          "format": "int64"
        },
        "perPage": {
          "type": "string",
          "format": "int64"
        }
      }
    },
    "v1PageInfo": {
      "type": "object",
      "properties": {
        "page": {
          "type": "string",
          "format": "int64"
        },
        "totalPage": {
          "type": "string",
          "format": "int64"
        },
        "perPage": {
          "type": "string",
          "format": "int64"
        },
        "nextPage": {
          "type": "string",
          "format": "int64"
        },
        "prevPage": {
          "type": "string",
          "format": "int64"
        },
        "hasNextPage": {
          "type": "boolean"
        },
        "hasPrevPage": {
          "type": "boolean"
        }
      }
    }
  },
  "securityDefinitions": {
    "bearerAuth": {
      "type": "apiKey",
      "name": "Authorization",
      "in": "header"
    }
  }
}
